a3_task3
…
Make a Summary Table

Here I will make a summary table containing the total number of purple urchins observed by site and year.

purple_site_year <- purple_urchins %>% 
  filter(site_full %in% c("Naples Reef", "Arroyo Quemado Reef", "Carpinteria Reef", "Mohawk Reef", "Isla Vista Reef"), 
         year_new >= 2008, year_new <= 2020) %>% 
  group_by(site_full, year_new) %>% 
  count()
purple_site_year

## # A tibble: 61 x 3
## # Groups:   site_full, year_new [61]
##    site_full           year_new     n
##    <chr>                  <dbl> <int>
##  1 Arroyo Quemado Reef     2008    67
##  2 Arroyo Quemado Reef     2009   926
##  3 Arroyo Quemado Reef     2010   921
##  4 Arroyo Quemado Reef     2011   887
##  5 Arroyo Quemado Reef     2012   764
##  6 Arroyo Quemado Reef     2013   434
##  7 Arroyo Quemado Reef     2014   410
##  8 Arroyo Quemado Reef     2015   400
##  9 Arroyo Quemado Reef     2016   342
## 10 Arroyo Quemado Reef     2017   406
## #  with 51 more rows
…
